<svg width="20" height="23" viewBox="0 0 20 23" fill="none" xmlns="http://www.w3.org/2000/svg">
<path d="M1 4H3H19" stroke="#343A3F" stroke-width="2" stroke-linecap="round" stroke-linejoin="round"/>
<path d="M5 4C5 4.55228 5.44772 5 6 5C6.55228 5 7 4.55228 7 4H5ZM6.58579 0.58579L7.29289 1.29291L7.29291 1.29289L6.58579 0.58579ZM13.4142 0.58579L12.7071 1.29292L12.7071 1.29293L13.4142 0.58579ZM13 4C13 4.55228 13.4477 5 14 5C14.5523 5 15 4.55228 15 4H13ZM17 4H18C18 3.44772 17.5523 3 17 3V4ZM3.58579 21.341L4.33323 20.6766L4.33322 20.6766L3.58579 21.341ZM3 4V3C2.44772 3 2 3.44772 2 4H3ZM7 4V2H5V4H7ZM7 2C7 1.73478 7.10536 1.48043 7.29289 1.29291L5.87869 -0.121326C5.31606 0.441288 5 1.20436 5 2H7ZM7.29291 1.29289C7.48043 1.10536 7.73478 1 8 1V-1C7.20436 -1 6.44129 -0.683936 5.87867 -0.121307L7.29291 1.29289ZM8 1H12V-1H8V1ZM12 1C12.2652 1 12.5195 1.10534 12.7071 1.29292L14.1213 -0.121336C13.5587 -0.683923 12.7956 -1 12 -1V1ZM12.7071 1.29293C12.8946 1.48044 13 1.73477 13 2H15C15 1.20437 14.684 0.441284 14.1213 -0.121345L12.7071 1.29293ZM13 2V4H15V2H13ZM16 4V19.75H18V4H16ZM16 19.75C16 20.117 15.8693 20.4487 15.6668 20.6766L17.1616 22.0053C17.7093 21.3892 18 20.5764 18 19.75H16ZM15.6668 20.6766C15.4677 20.9006 15.2246 21 15 21V23C15.8362 23 16.6105 22.6253 17.1616 22.0053L15.6668 20.6766ZM15 21H5V23H15V21ZM5 21C4.77533 21 4.53231 20.9006 4.33323 20.6766L2.83835 22.0053C3.38941 22.6253 4.16381 23 5 23V21ZM4.33322 20.6766C4.13067 20.4487 4 20.117 4 19.75H2C2 20.5764 2.29075 21.3892 2.83836 22.0053L4.33322 20.6766ZM4 19.75V4H2V19.75H4ZM3 5H17V3H3V5Z" fill="#343A3F"/>
<path d="M12 11V17" stroke="#343A3F" stroke-width="2" stroke-linecap="round" stroke-linejoin="round"/>
<path d="M8 11V17" stroke="#343A3F" stroke-width="2" stroke-linecap="round" stroke-linejoin="round"/>
</svg>
