<svg width="13" height="13" viewBox="0 0 13 13" fill="none" xmlns="http://www.w3.org/2000/svg">
<path d="M12 1L1 12" stroke="#333399" stroke-width="2" stroke-linecap="round"/>
<path d="M12 12L1 1" stroke="#333399" stroke-width="2" stroke-linecap="round"/>
</svg>
