<svg width="31" height="39" viewBox="0 0 31 39" fill="none" xmlns="http://www.w3.org/2000/svg">
<path fill-rule="evenodd" clip-rule="evenodd" d="M30.1026 9.89368L21.1697 0.903158C20.5987 0.328421 19.8237 0 19.0487 0H3.01842C2.20263 0 1.46842 0.328421 0.897368 0.903158C0.326316 1.47789 0 2.21684 0 3.03789V35.9621C0 37.6453 1.34605 39 3.01842 39H27.9816C29.6539 39 31 37.6453 31 35.9621V12.0284C31 11.2484 30.6737 10.4684 30.1026 9.89368ZM28.3895 10.6326H21.7816C21.0474 10.6326 20.4355 10.0168 20.4355 9.27789V2.66842L28.3895 10.6326ZM3.01842 37.2347H27.9816C28.675 37.2347 29.2461 36.66 29.2461 35.9621V12.3979H21.7816C20.0684 12.3979 18.6816 11.0021 18.6816 9.27789V1.76526H3.01842C2.69211 1.76526 2.36579 1.88842 2.12105 2.13474C1.87632 2.38105 1.75395 2.70947 1.75395 3.03789V35.9621C1.75395 36.66 2.325 37.2347 3.01842 37.2347Z" fill="black"/>
<path fill-rule="evenodd" clip-rule="evenodd" d="M18.5595 24.9591C18.1347 24.5927 17.7099 24.1581 17.2515 23.6892L17.2515 23.6891L17.2513 23.689L17.2512 23.6888C17.0935 23.5275 16.9318 23.362 16.7647 23.1939C16.316 22.7012 15.8266 22.0033 15.4187 21.2644C16.1937 18.596 16.5608 16.0507 15.745 14.8191C15.3779 14.2444 14.8068 13.957 14.0726 13.957C13.2568 13.957 12.645 14.3265 12.3594 15.0244C11.7068 16.5023 12.6858 19.2118 13.8687 21.4286C13.5423 22.496 13.1344 23.6455 12.645 24.9181C12.3594 25.616 12.0331 26.3139 11.7068 26.9707C8.36208 28.2844 6.32261 29.7623 6.03708 31.1581C5.91471 31.8149 6.11866 32.3897 6.68971 32.8412C7.01603 33.0876 7.38313 33.2518 7.79103 33.2518C7.95418 33.2518 8.11733 33.2107 8.28048 33.1697L8.2805 33.1697C9.8305 32.7591 11.5029 30.4602 12.7266 28.1202C13.4608 27.8328 14.3173 27.5455 15.2555 27.2991C16.3568 26.9707 17.3358 26.7244 18.1923 26.5602C19.7831 27.8328 21.1292 28.5307 22.3121 28.5307C23.2094 28.5718 23.8621 28.2433 24.4739 27.6276C25.3713 26.7244 25.0042 25.9444 24.8818 25.7391C24.1476 24.5897 21.9042 24.3433 18.5595 24.9591ZM7.87261 31.7328C7.70945 31.7739 7.62787 31.7328 7.54629 31.6918C7.38313 31.5686 7.38313 31.4865 7.42392 31.4044C7.5055 30.9118 8.44366 30.0086 10.4831 29.0233C9.50419 30.5012 8.52524 31.5686 7.87261 31.7328ZM13.6714 15.5854L13.6647 15.5991C13.3792 16.256 13.7463 17.7339 14.4397 19.2939C14.8884 17.4876 14.9292 16.1328 14.5621 15.5991C14.4805 15.517 14.3581 15.3939 14.0726 15.3939C13.764 15.3939 13.7108 15.504 13.6714 15.5854ZM14.8068 25.8623L13.5831 26.2318C13.7055 25.9444 13.8279 25.657 13.9502 25.4107C14.0697 25.0844 14.1963 24.7581 14.324 24.4288L14.324 24.4288C14.5017 23.9709 14.6815 23.5072 14.8476 23.0297L14.9563 23.1804C15.2382 23.5721 15.4916 23.9241 15.745 24.1791C16.1121 24.5897 16.4792 24.9591 16.8463 25.3286C16.717 25.3611 16.5862 25.3936 16.4541 25.4265C15.919 25.5595 15.3629 25.6977 14.8068 25.8623ZM22.3121 27.0528C22.7608 27.0528 23.1279 26.9297 23.4134 26.6012C23.8213 26.1086 22.4752 25.8623 20.1095 26.1907C20.966 26.7655 21.7002 27.0528 22.3121 27.0528Z" fill="black"/>
</svg>
