{
  "kind": "collectionType",
  "collectionName": "kinds",
  "info": {
    "name": "kind",
    "description": ""
  },
  "options": {
    "increments": true,
    "timestamps": true,
    "draftAndPublish": false
  },
  "attributes": {
    "name": {
      "type": "string",
      "required": true,
      "unique": true
    }
  }
}
